module gitlab.com/denvi/denvi

go 1.17

require (
	github.com/go-git/go-git/v5 v5.4.2
	github.com/urfave/cli/v2 v2.3.0
	gopkg.in/yaml.v2 v2.3.0
)

require (
	github.com/Microsoft/go-winio v0.4.16 // indirect
	github.com/ProtonMail/go-crypto v0.0.0-20210428141323-04723f9f07d7 // indirect
	github.com/acomagu/bufpipe v1.0.3 // indirect
	github.com/cpuguy83/go-md2man/v2 v2.0.0-20190314233015-f79a8a8ca69d // indirect
	github.com/emirpasic/gods v1.12.0 // indirect
	github.com/fatih/color v1.13.0 // indirect
	github.com/go-git/gcfg v1.5.0 // indirect
	github.com/go-git/go-billy/v5 v5.3.1 // indirect
	github.com/imdario/mergo v0.3.12 // indirect
	github.com/jbenet/go-context v0.0.0-20150711004518-d14ea06fba99 // indirect
	github.com/kevinburke/ssh_config v0.0.0-20201106050909-4977a11b4351 // indirect
	github.com/mattn/go-colorable v0.1.9 // indirect
	github.com/mattn/go-isatty v0.0.14 // indirect
	github.com/mattn/go-runewidth v0.0.9 // indirect
	github.com/mitchellh/go-homedir v1.1.0 // indirect
	github.com/olekukonko/tablewriter v0.0.5 // indirect
	github.com/rodaine/table v1.0.1 // indirect
	github.com/russross/blackfriday/v2 v2.0.1 // indirect
	github.com/sergi/go-diff v1.1.0 // indirect
	github.com/shurcooL/sanitized_anchor_name v1.0.0 // indirect
	github.com/xanzy/ssh-agent v0.3.0 // indirect
	golang.org/x/crypto v0.0.0-20210421170649-83a5a9bb288b // indirect
	golang.org/x/net v0.0.0-20210326060303-6b1517762897 // indirect
	golang.org/x/sys v0.0.0-20210630005230-0f9fa26af87c // indirect
	gopkg.in/warnings.v0 v0.1.2 // indirect
)
